A una immobiliària li cal gestionar informació referent a immobles 
de la seva propietat que es lloguen al seus clients o immobles que 
són propietats dels seus clients i les els lloguen en nom seu. Els 
immobles són cases, departaments i locals comercials. Una mateix 
client pot llogar més d’un immoble o també ser propietari de 
diferents immobles. 

-D’una casa interessa conèixer l’adreça, la ciutat, la superfície, 
el nombre d’habitacions i terrasses. 
-D’un departament l’adreça, la ciutat, la superfície, pis, porta 
i si té o no ascensor. 
-D’un local l’adreça, la ciutat, la superfície i si és un soterrani
o no. 
-Dels propietaris nom, DNI, adreça, ciutat, i telèfon. 
-Dels llogaters a més el nombre de compte bancari on carregar 
l’import del lloguer. 

Per llogar un immoble se li demana al llogater un dipòsit de 
garantia on hi figura el nombre cadastral de l’immoble llogat 
i l’import del dipòsit.

@startuml Ex11
class Client {
    -Nom 
    -DNI 
    -Adreça
    -Ciutat
    -Telefon
}
class Inmoble {
    -Adreça 
    -Ciutat
    -Superficie
}
class Casa {
    -NumHabitacions
    -NumTerrasses
}
class Departament {
    -Pis
    -Porta 
    -Ascensor : Boolean
}
class Local {
    -Soterrani : Boolean
}
class Llogater {
    -NombreCompteBancari
}
class Inmobiliaria

Client <|-- Propietari
Client <|-- Llogater
Client "1..*" -- "1..*" Inmoble
(Inmoble, Client) .. Inmobiliaria
Llogater *..* Deposit : Necessita

Inmoble <|-- Casa
Inmoble <|-- Local
Inmoble <|-- Departament
@enduml