Una cadena d’hotels ha decidit acabar amb els clients que fan 
malbé el mobiliari de l’hotel. Vol gestionar la informació 
referent els clients que han fet malbé o robat mobles i quins 
són aquests mobles. La informació de cada hotel (codi, adreça 
i telèfon), i un conjunt d’habitacions identificades per un 
número d’habitació únic per cada hotel i un conjunt d’elements 
de mobiliari estàndard amb un codi, descripció i un preu, per 
exemple: “cadira de cuir disseny clàssic, 98’75 €”. Després de 
fer un inventari, tot el mobiliari dels hotels està identificat, 
és a dir, sabem quins i quants elements de mobiliari hi ha en 
cada habitació de cada hotel. Els mobles poden canviar d’habitació, 
però no ens cal guardar l’habitació vella. Per cada habitació, 
guardarem també si és assolellada, si té lavabo i si té nevera. 
Cada client té informació personal (DNI, nom, etc), i a més un 
historial de les seves malifetes: per cada client guardem quins 
mobles i quants n’ha fet malbé. També volem saber les estades que 
ha fet cada client en els hotels, guardant en un únic atribut la 
data d’arribada i la de sortida, així com l’habitació en que s’ha 
allotjat. Un client pot allotjar-se en una mateixa habitació d’hotel 
en diferents estades.

@startuml Ex13
left to right direction
class Hotel {
    -Codi 
    -Adreça
    -Telefon
}
class Habitacio {
    -Codi
}
class Mobiliari {
    -Codi
    -Descripcio
    -Preu
}
class Client {
    -DNI 
    -Nom
    -Telefon
    -Adreça
}
class Malifeta {
    -Mobles
    -numMobles
}
class Estada {
    -Estancia
    -Habitacio
}

Hotel "1" -- "*" Client : hi ha
(Hotel, Client) .. Estada
Client "1" -- "1..*" Mobiliari : poseeix
Hotel -- "1..*" Habitacio : conté
Habitacio -- "1..*" Mobiliari : té
(Client, Mobiliari) .. Malifeta
@enduml