Es vol gestionar la informació de les reserves d’una empresa 
dedicada al lloguer de vehicles. Un determinat client pot tenir 
fetes vàries reserves en un moment determinat. De cada client 
volem guardar el DNI, nom i cognoms, adreça i telèfons. Cada 
client pot ser avalat per un altre client de l’empresa. Una 
reserva és feta per un únic client però pot llogar diferents 
cotxes. De la reserva cal registrar la data d’inici i final del 
lloguer, el preu de lloguer de cada cotxe, els litres de gasolina 
en el dipòsit en el moment de fer la reserva, el preu total de la 
reserva i un indicador de si el cotxe o cotxes han estat entregats. 
Tot cotxe té sempre assignat un garatge on està guardat. Del 
garatge volem saber l’adreça on està i la capacitat de cotxes que 
té. De cada cotxe guardem la matrícula, model, color, marca i tipus 
de cotxe (utilitari, mitjà, gran, luxe, monovolum o tot terreny).
Cada reserva es realitza en una determinada agència. D’una agència 
guardem l’adreça i el nom del director. Cada agència té un únic 
director.

@startuml Ex17
left to right direction
class Concessionari
class Client {
    -DNI 
    -Nom 
    -Cognoms
    -Adreça
    -Telefon
}
class Aval 
class Reserva {
    -DataLloguer
    -PreuCotxe
    -LitresGasolina
    -PreuReserva
    -Entregat : Boolean
}
class Cotxe {
    -Matricula
    -Model
    -Color 
    -Marca
}
enum TipusCotxe {
    Utilitari
    Mitjà
    Gran 
    Luxe 
    Monovolum 
    TotTerreny
}
class Garatge {
    -Adreça 
    -Capacitat
}
class Agencia {
    -Agencia 
    -NomDirector
}

Concessionari "!" -- "1..*" Client : Te
Client --> Aval : Pot fer
Aval --> Client
Client -- Cotxe : Compra
(Client, Cotxe) .. Reserva
Reserva --o Agencia : Es fa a
Agencia *-- Director : Treballa
Cotxe "1..*" --o "1" Garatge : Guardat
Cotxe <|-- TipusCotxe
@enduml