8.	Un alumne pot tenir molts professors (com a mínim, un), però els professors 
només poden fer classe a un alumne (almenys han de fer-ne classe a un).

@startuml Ex8
left to right direction

Alumne "1" .. "1..*" Professor : Por tenir
Professor "1" -- "1..*" Alumne : Fan classe
@enduml