D’un conjunt de persones ens interessa conèixer el seu 
número de telèfon i de les ciutats on han viscut, el nom.

@startuml Ex12
left to right direction
class Persona {
    NumTelefon : integer
}
class Ciutat {
    Nom : String
}

Persona -- Ciutat
@enduml