D’un conjunt de les persones ens interessa conèixer la 
data de naixement i de la ciutat on han nascut, el nom.
Suposarem que a cada ciutat almenys ha nascut una de 
les nostres persones.

@startuml Ex14
left to right direction
class Persona {
    DataNaixement
}
class Ciutat {
    Nom
}

Persona "1..*" -- "1" Ciutat
@enduml